Begin Time - ss.msec,End Time - ss.msec,dweller,visitor-1,visitor-2
 0.000,11.300,kitchen-opening/closing cabinet ,out,out
11.300,17.250,out,out,out
17.250,21.001,out,kitchen-chatting,out
21.001,29.485,entrance-chatting,kitchen-chatting,out
29.485,39.643,kitchen-standing and chatting,kitchen-chatting,out
39.643,43.422,kitchen-standing and chatting,living room-standing and chatting,out
43.422,55.145,living room-standing and chatting,living room-standing and chatting,out
55.145,59.957,living room-standing and chatting,living room-standing and chatting,out
59.957,118.057,living room-standing and reading,living room-standing and chatting,out
118.057,304.178,living room-standing and chatting,living room-standing and chatting,out
304.178,305.600,kitchen-chatting,living room-standing and chatting,out
305.600,308.350,kitchen-chatting,out,out
308.350,315.281,kitchen-chatting,living room-standing and chatting,out
315.281,396.900,living room-standing and chatting,living room-standing and chatting,out
396.900,398.380,living room-standing and chatting,out,out
398.380,489.994,living room-sitting and reading,out,out
489.994,524.223,living room-standing and reading,out,out
524.223,545.320,kitchen-standing and reading,out,out
545.320,561.931,stairs-walking and reading,out,out
561.931,570.100,corridor-walking,out,out
570.100,594.243,bedroom-lying and reading,out,out
594.243,613.088,stairs-walking,out,out
613.088,622.595,kitchen-opening/closing cabinet,out,out
622.595,632.650,kitchen-pouring coffee,out,out
632.650,668.628,kitchen-opening/closing cabinet ,out,out
668.628,678.161,kitchen-standing,out,out
678.161,683.900,living room-standing,out,out
683.900,689.200,out,out,out
689.200,693.275,out,entrance-chatting,out
693.275,698.928,kitchen-standing and chatting,entrance-chatting,out
698.928,710.043,kitchen-standing and chatting,kitchen-standing and reading,out
710.043,712.485,living room-standing and chatting,kitchen-standing and reading,out
712.485,754.423,living room-standing and chatting,living room-standing and chatting,out
754.423,754.496,kitchen-standing and chatting,living room-standing and chatting,out
754.496,766.734,kitchen-standing and chatting,kitchen-opening/closing cabinet,out
766.734,768.198,kitchen-standing and chatting,kitchen-chatting ,out
768.198,783.940,living room-standing and chatting,kitchen-chatting ,out
783.940,793.967,living room-sitting and chatting,kitchen-chatting ,out
793.967,794.000,living room-sitting and reading,kitchen-chatting ,out
794.000,856.470,living room-sitting and reading,out,out
856.470,867.928,kitchen-opening/closing cabinet,out,out
867.928,886.100,living room-sitting and reading,out,out
886.100,891.375,out,out,out
891.375,895.200,out,kitchen-chatting,out
895.200,906.888,kitchen-chatting,kitchen-chatting,out
906.888,909.551,kitchen-chatting,living room-sitting and chatting,out
909.551,954.087,living room-sitting and chatting,living room-sitting and chatting,out
954.087,974.900,kitchen-opening/closing cabinet,living room-sitting and chatting,out
974.900,977.846,kitchen-opening/closing cabinet,kitchen-standing and chatting,out
977.846,1004.354,kitchen-standing and chatting,kitchen-standing and chatting,out
1004.354,1004.530,kitchen-opening/closing cabinet,kitchen-standing and chatting,out
1004.530,1043.911,kitchen-opening/closing cabinet,living room-sitting and reading,out
1043.911,1063.427,kitchen-standing and chatting,living room-sitting and reading,out
1063.427,1102.168,living room-sitting and chatting,living room-sitting and reading,out
1102.168,1110.354,living room-sitting and reading,living room-sitting and reading,out
1110.354,1121.363,living room-sitting and reading,stairs-walking and reading,out
1121.363,1123.600,living room-sitting and reading,corridor-walking,out
1123.600,1146.400,living room-sitting and reading,bathroom,out
1146.400,1154.164,living room-sitting and reading,corridor-walking,out
1154.164,1161.346,living room-sitting and reading,stairs-walking,out
1161.346,1165.870,living room-sitting and reading,living room-sitting and chatting,out
1165.870,1226.167,living room-sitting and chatting,living room-sitting and chatting,out
1226.167,1233.488,living room-standing and chatting,living room-sitting and chatting,out
1233.488,1235.390,living room-standing and chatting,living room-sitting and reading,out
1235.390,1246.225,stairs-walking and reading,living room-sitting and reading,out
1246.225,1299.267,bedroom-lying and reading,living room-sitting and reading,out
1299.267,1408.472,bedroom-lying and reading,kitchen-opening/closing cabinet and cleaning dishes,out
1408.472,1420.437,bedroom-lying and reading,stairs-walking,out
1420.437,1425.501,bedroom-lying and reading,bedroom-standing and chatting,out
1425.501,1437.591,living room-standing and chatting,bedroom-standing and chatting,out
1437.591,1438.674,living room-standing and chatting,stairs-walking,out
1438.674,1455.506,stairs-walking,stairs-walking,out
1455.506,1456.381,kitchen-standing and chatting,stairs-walking,out
1456.381,1463.400,kitchen-standing and chatting,kitchen-chatting,out
1463.400,1466.800,kitchen-standing and chatting,out,out
1466.800,1475.300,out,out,out
1475.300,1482.700,out,kitchen-chatting,out
1482.700,1487.177,living room-standing and chatting,kitchen-chatting,out
1487.177,1499.500,living room-standing and chatting,living room-standing and chatting,out
1499.500,1499.549,living room-standing and chatting,out,out
1499.549,1512.082,living room-walking,out,out
1512.082,1526.086,living room-standing and reading,out,out
1526.086,1546.900,kitchen-drinking water,out,out
1546.900,1551.636,kitchen-drinking water,kitchen-standing and chatting,out
1551.636,1576.400,kitchen-standing and reading,kitchen-standing and chatting,out
1576.400,1579.783,kitchen-standing and reading,out,out
1579.783,1591.075,kitchen-standing and chatting,out,out
1591.075,1600.224,kitchen-standing and chatting,kitchen-standing and chatting,out
1600.224,1601.282,living room-walking and chatting,kitchen-standing and chatting,out
1601.282,1617.693,living room-walking and chatting,living room-standing and chatting,out
1617.693,1683.058,living room-standing and chatting,living room-standing and chatting,out
1683.058,1685.675,living room-standing and chatting,kitchen-standing and chatting,out
1685.675,1693.134,kitchen-chatting,kitchen-standing and chatting,out
1693.134,1693.148,kitchen-chatting,living room-standing and chatting,out
1693.148,1798.400,living room-standing and chatting,living room-standing and chatting,out
1798.400,1799.040,living room-standing and chatting,out,out
1799.040,1831.518,living room - sitting and reading,out,out
1831.518,1855.300,out,out,out
1855.300,1879.050,stairs-sitting and reading,out,out
1879.050,1906.097,kitchen-standing and reading,out,out
1906.097,1935.463,living room-sitting and reading,out,out
1935.463,1955.678,living room-standing and reading,out,out
1955.678,1983.200,living room-sitting and reading,out,out
1983.200,2004.950,out,out,out
2004.950,2037.825,stairs-standing and reading,out,out
2037.825,2064.212,kitchen-standing and reading,out,out
2064.212,2090.845,living room-sitting and reading,out,out
2090.845,2113.003,living room-standing and reading,out,out
2113.003,2142.500,living room-sitting and reading,out,out
2142.500,2174.325,out,out,out
2174.325,2199.600,stairs-standing and reading,out,out
2199.600,2230.623,kitchen-standing and reading,out,out
2230.623,2252.799,living room-sitting and reading,out,out
2252.799,2279.490,living room-standing and reading,out,out
2279.490,2309.100,living room-sitting and reading,out,out
2309.100,2312.347,out,out,out
2312.347,2318.168,out,out,entrance-walking
2318.168,2328.014,out,out,stairs-walking
2328.014,2336.702,out,out,kitchen-reading
2336.702,2350.700,out,out,living room-walking and reading
2350.700,2368.900,stairs-standing and reading,out,living room-walking and reading
2368.900,2399.696,kitchen-standing and reading,out,living room-walking and reading
2399.696,2423.440,living room-sitting and reading,out,living room-walking and reading
2423.440,2440.526,living room-standing and reading,out,living room-walking and reading
2440.526,2467.400,living room-standing and reading,out,living room-walking and reading
2467.400,2487.625,out,out,living room-walking and reading
2487.625,2500.003,kitchen-standing,out,living room-walking and reading
2500.003,2503.275,kitchen-standing,out,stairs-walking
2503.275,2510.987,out,out,stairs-walking
2510.987,2517.408,out,out,bedroom-walking
2517.408,2527.900,out,out,out
2527.900,2551.425,stairs-standing and reading ,out,out
2551.425,2574.151,kitchen-standing and reading,out,out
2574.151,2599.697,living room-sitting and reading,out,out
2599.697,2615.228,living room-standing and reading,out,out
2615.228,2643.736,living room-sitting and reading,out,out
2643.736,2658.100,kitchen-standing and reading,out,out
2658.100,2677.850,out,out,out
2677.850,2701.775,stairs-standing and reading,out,out
2701.775,2728.988,kitchen-standing and reading,out,out
2728.988,2751.061,living room-sitting and reading,out,out
2751.061,2776.085,living room-standing and reading,out,out
2776.085,2796.980,living room-sitting and reading,out,out
2796.980,2811.878,stairs-walking,out,out
2811.878,2814.300,corridor-walking,out,out
2814.300,2944.525,bathroom,out,out
2944.525,2944.600,bathroom,bedroom-using the vacuum cleaner,out
2944.600,2947.450,bedroom-walking,bedroom-using the vacuum cleaner,out
2947.450,2961.491,bedroom-walking,out,out
2961.491,2977.744,corridor-standing and reading,out,out
2977.744,2982.584,bedroom-walking,out,out
2982.584,2997.167,bedroom-standing and reading,out,out
2997.167,3031.038,bedroom-lying and reading,out,out
3031.038,3036.032,bedroom-walking,out,out
3036.032,3056.547,corridor-standing and reading,out,out
3056.547,3061.843,bedroom-walking,out,out
3061.843,3083.437,bedroom-standing and reading,out,out
3083.437,3109.394,bedroom-lying and reading,out,out
3109.394,3115.619,bedroom-walking,out,out
3115.619,3136.128,corridor-standing and reading,out,out
3136.128,3140.011,bedroom-walking,out,out
3140.011,3159.275,bedroom-standing and reading,out,out
3159.275,3182.149,bedroom-lying and reading,out,out
3182.149,3191.329,bedroom-walking,out,out
3191.329,3209.762,corridor-standing and reading,out,out
3209.762,3214.371,bedroom-walking,out,out
3214.371,3228.622,bedroom-standing and reading,out,out
3228.622,3250.056,bedroom-lying and reading,out,out
3250.056,3271.457,bedroom-standing and reading,out,out
3271.457,3290.421,bedroom-using the vacuum cleaner ,out,out
3290.421,3322.000,bedroom-moving the vacuum cleaner  ,out,out
